<?xml version="1.0" encoding="UTF-8" standalone="no"?>
<!-- Generator: Adobe Illustrator 15.0.0, SVG Export Plug-In . SVG Version: 6.00 Build 0)  -->

<svg
   xmlns:dc="http://purl.org/dc/elements/1.1/"
   xmlns:cc="http://creativecommons.org/ns#"
   xmlns:rdf="http://www.w3.org/1999/02/22-rdf-syntax-ns#"
   xmlns:svg="http://www.w3.org/2000/svg"
   xmlns="http://www.w3.org/2000/svg"
   xmlns:sodipodi="http://sodipodi.sourceforge.net/DTD/sodipodi-0.dtd"
   xmlns:inkscape="http://www.inkscape.org/namespaces/inkscape"
   version="1.1"
   id="_x31__x5F_Adjustment_x5F_Initialize"
   x="0px"
   y="0px"
   width="410"
   height="283"
   viewBox="0 0 409.99999 283"
   xml:space="preserve"
   inkscape:version="0.48.3.1 r9886"
   sodipodi:docname="1_Adjustment_Initialize.svg"><metadata
   id="metadata13"><rdf:RDF><cc:Work
       rdf:about=""><dc:format>image/svg+xml</dc:format><dc:type
         rdf:resource="http://purl.org/dc/dcmitype/StillImage" /></cc:Work></rdf:RDF></metadata><defs
   id="defs11" /><sodipodi:namedview
   pagecolor="#ffffff"
   bordercolor="#666666"
   borderopacity="1"
   objecttolerance="10"
   gridtolerance="10"
   guidetolerance="10"
   inkscape:pageopacity="0"
   inkscape:pageshadow="2"
   inkscape:window-width="640"
   inkscape:window-height="480"
   id="namedview9"
   showgrid="false"
   inkscape:zoom="0.54216341"
   inkscape:cx="269.2915"
   inkscape:cy="141.7325"
   inkscape:window-x="0"
   inkscape:window-y="24"
   inkscape:window-maximized="0"
   inkscape:current-layer="_x31__x5F_Adjustment_x5F_Initialize" />
<g
   id="g3"
   transform="translate(-56,-0.46499634)">
	<path
   style="fill:#ffffff"
   d="m 202.391,176.317 c -9.225,-15.999 -11.685,-34.617 -6.898,-52.443 3.59,-13.36 10.901,-25.082 21.077,-33.994 l -3.91,14.585 12.4,3.316 11.155,-41.607 -41.625,-11.176 -3.327,12.4 17.581,4.711 c -15.33,11.702 -26.372,27.974 -31.46,46.902 -6.067,22.67 -2.949,46.356 8.781,66.671 15.641,27.079 44.802,43.926 76.093,43.926 l 0.009,-18.73 c -24.629,-0.02 -47.572,-13.257 -59.876,-34.561 z"
   id="path5"
   inkscape:connector-curvature="0" />
	<path
   style="fill:#ffffff"
   d="M 338.356,97.813 C 322.723,70.734 293.568,53.906 262.276,53.859 l -0.018,18.76 c 24.628,0.02 47.576,13.267 59.853,34.569 16.716,28.954 10.024,65.098 -14.134,86.41 l 3.892,-14.567 -12.391,-3.335 -11.159,41.637 41.641,11.146 3.317,-12.399 -17.572,-4.702 c 34.447,-26.411 44.916,-74.972 22.651,-113.565 z"
   id="path7"
   inkscape:connector-curvature="0" />
</g>
</svg>