<?xml version="1.0" encoding="UTF-8" standalone="no"?>
<!-- Generator: Adobe Illustrator 15.0.0, SVG Export Plug-In . SVG Version: 6.00 Build 0)  -->

<svg
   xmlns:dc="http://purl.org/dc/elements/1.1/"
   xmlns:cc="http://creativecommons.org/ns#"
   xmlns:rdf="http://www.w3.org/1999/02/22-rdf-syntax-ns#"
   xmlns:svg="http://www.w3.org/2000/svg"
   xmlns="http://www.w3.org/2000/svg"
   xmlns:sodipodi="http://sodipodi.sourceforge.net/DTD/sodipodi-0.dtd"
   xmlns:inkscape="http://www.inkscape.org/namespaces/inkscape"
   version="1.1"
   id="_x32__x5F_Further_x5F_Processing_x5F_Hood_x5F_Up"
   x="0px"
   y="0px"
   width="410"
   height="283"
   viewBox="0 0 409.99999 283"
   xml:space="preserve"
   inkscape:version="0.48.3.1 r9886"
   sodipodi:docname="1_General_Spacebar.svg"><metadata
   id="metadata33"><rdf:RDF><cc:Work
       rdf:about=""><dc:format>image/svg+xml</dc:format><dc:type
         rdf:resource="http://purl.org/dc/dcmitype/StillImage" /><dc:title></dc:title></cc:Work></rdf:RDF></metadata><defs
   id="defs31" /><sodipodi:namedview
   pagecolor="#ffffff"
   bordercolor="#666666"
   borderopacity="1"
   objecttolerance="10"
   gridtolerance="10"
   guidetolerance="10"
   inkscape:pageopacity="0"
   inkscape:pageshadow="2"
   inkscape:window-width="1863"
   inkscape:window-height="1176"
   id="namedview29"
   showgrid="true"
   inkscape:zoom="1.5334697"
   inkscape:cx="244.38162"
   inkscape:cy="119.7693"
   inkscape:window-x="1977"
   inkscape:window-y="24"
   inkscape:window-maximized="1"
   inkscape:current-layer="g3" />
<g
   id="g3"
   transform="translate(0,-0.46499634)">
	
	<g
   id="g11"
   transform="matrix(1.3858221,0,0,0.69057594,-112.45143,4.825201)">
		<g
   id="g13">
			<path
   style="fill:#ffffff"
   d="M 319.27,229.721 H 142.477 c -10.941,0 -19.842,-8.901 -19.842,-19.843 v -67.041 h 17.008 v 67.041 c 0,1.537 1.298,2.835 2.834,2.835 H 319.27 c 1.537,0 2.835,-1.298 2.835,-2.835 v -67.041 h 17.008 v 67.041 c 0,10.941 -8.902,19.843 -19.843,19.843 z"
   id="path15"
   inkscape:connector-curvature="0" />
		</g>
	</g>
	<g
   id="g17">
		<g
   id="g19">
			
		</g>
		
	</g>
</g>
</svg>