<?xml version="1.0" encoding="UTF-8" standalone="no"?>
<!-- Generator: Adobe Illustrator 15.0.0, SVG Export Plug-In . SVG Version: 6.00 Build 0)  -->

<svg
   xmlns:dc="http://purl.org/dc/elements/1.1/"
   xmlns:cc="http://creativecommons.org/ns#"
   xmlns:rdf="http://www.w3.org/1999/02/22-rdf-syntax-ns#"
   xmlns:svg="http://www.w3.org/2000/svg"
   xmlns="http://www.w3.org/2000/svg"
   xmlns:sodipodi="http://sodipodi.sourceforge.net/DTD/sodipodi-0.dtd"
   xmlns:inkscape="http://www.inkscape.org/namespaces/inkscape"
   version="1.1"
   id="_x31__x5F_Navigation_x5F_Back_x5F_To_x5F_Login"
   x="0px"
   y="0px"
   width="410"
   height="283"
   viewBox="0 0 409.99999 283"
   xml:space="preserve"
   inkscape:version="0.48.3.1 r9886"
   sodipodi:docname="1_Navigation_Back_To_Login.svg"><metadata
   id="metadata4182"><rdf:RDF><cc:Work
       rdf:about=""><dc:format>image/svg+xml</dc:format><dc:type
         rdf:resource="http://purl.org/dc/dcmitype/StillImage" /></cc:Work></rdf:RDF></metadata><defs
   id="defs4180" /><sodipodi:namedview
   pagecolor="#ffffff"
   bordercolor="#666666"
   borderopacity="1"
   objecttolerance="10"
   gridtolerance="10"
   guidetolerance="10"
   inkscape:pageopacity="0"
   inkscape:pageshadow="2"
   inkscape:window-width="640"
   inkscape:window-height="480"
   id="namedview4178"
   showgrid="false"
   inkscape:zoom="0.54216341"
   inkscape:cx="269.2915"
   inkscape:cy="141.7325"
   inkscape:window-x="0"
   inkscape:window-y="24"
   inkscape:window-maximized="0"
   inkscape:current-layer="_x31__x5F_Navigation_x5F_Back_x5F_To_x5F_Login" />
<g
   id="g4172"
   transform="translate(-51.644946,1.379466)">
	<path
   style="fill:#ffffff"
   d="m 358.496,117.511 c 3.461,-9.722 6.756,-13.713 6.756,-26.33 0,-20.209 -16.381,-33.926 -36.604,-33.926 -20.223,0 -36.604,13.717 -36.604,33.926 0,12.617 3.295,16.608 6.755,26.33 -23.057,23.281 -35.238,56.251 -35.238,85.013 0,17.983 32.543,26.975 65.088,26.974 32.543,0.001 65.086,-8.99 65.086,-26.974 -0.001,-28.762 -12.183,-61.732 -35.239,-85.013 z m 4.246,90.826 c -9.448,2.678 -21.557,4.152 -34.1,4.152 -12.537,0 -24.644,-1.475 -34.09,-4.152 -9.651,-2.735 -13.062,-5.673 -13.98,-6.647 0.243,-25.934 11.811,-53.53 30.311,-72.211 l 7.525,-7.598 -3.586,-10.073 c -0.975,-2.737 -1.908,-5.012 -2.732,-7.019 -2.148,-5.236 -3.039,-7.404 -3.039,-13.608 0,-11.624 10.158,-16.918 19.597,-16.918 9.439,0 19.597,5.294 19.597,16.918 0,6.206 -0.891,8.374 -3.04,13.611 -0.823,2.006 -1.757,4.279 -2.73,7.015 l -3.587,10.074 7.525,7.598 c 18.5,18.681 30.067,46.278 30.311,72.211 -0.92,0.974 -4.332,3.912 -13.982,6.647 z"
   id="path4174"
   inkscape:connector-curvature="0" />
	<path
   style="fill:#ffffff"
   d="M 271.015,117.514 C 269.834,116.663 243.341,97.839 203.53,88.75 l 17.629,-26.198 -95.269,33.144 20.296,78.268 24.305,-36.118 c 38.241,9.538 64.579,36.215 64.849,36.491 l 5.187,5.344 34.679,-59.151 -4.191,-3.016 z m -32.924,43.902 c -10.496,-9.189 -35.532,-28.328 -68.929,-35.519 l -3.753,-0.809 -14.569,21.65 -11.35,-43.77 53.277,-18.535 -8.196,12.18 8.515,1.56 c 32.516,5.956 57.396,19.777 66.997,25.731 l -21.992,37.512 z"
   id="path4176"
   inkscape:connector-curvature="0" />
</g>
</svg>