<?xml version="1.0" encoding="utf-8"?>
<!-- Generator: Adobe Illustrator 17.0.1, SVG Export Plug-In . SVG Version: 6.00 Build 0)  -->
<!DOCTYPE svg PUBLIC "-//W3C//DTD SVG 1.1//EN" "http://www.w3.org/Graphics/SVG/1.1/DTD/svg11.dtd">
<svg version="1.1" id="_x31__x5F_Adjustment_x5F_Stop_x5F_Active"
	 xmlns="http://www.w3.org/2000/svg" xmlns:xlink="http://www.w3.org/1999/xlink" x="0px" y="0px" width="538.583px"
	 height="283.465px" viewBox="0 0 538.583 283.465" enable-background="new 0 0 538.583 283.465" xml:space="preserve">
<g>
	<path fill="#FFFFFF" d="M218.661,194.043c-4.678,0-8.506-3.828-8.506-8.506v-84.648c0-4.678,3.829-8.506,8.506-8.506h20.651
		c4.678,0,8.506,3.828,8.506,8.506v84.648c0,4.678-3.828,8.506-8.506,8.506H218.661z"/>
</g>
<g>
	<path fill="#FFFFFF" d="M283.661,194.043c-4.678,0-8.506-3.828-8.506-8.506v-84.648c0-4.678,3.829-8.506,8.506-8.506h20.651
		c4.678,0,8.506,3.828,8.506,8.506v84.648c0,4.678-3.828,8.506-8.506,8.506H283.661z"/>
</g>
</svg>
