<?xml version="1.0" encoding="UTF-8" standalone="no"?>
<!-- Generator: Adobe Illustrator 15.0.0, SVG Export Plug-In . SVG Version: 6.00 Build 0)  -->

<svg
   xmlns:dc="http://purl.org/dc/elements/1.1/"
   xmlns:cc="http://creativecommons.org/ns#"
   xmlns:rdf="http://www.w3.org/1999/02/22-rdf-syntax-ns#"
   xmlns:svg="http://www.w3.org/2000/svg"
   xmlns="http://www.w3.org/2000/svg"
   xmlns:sodipodi="http://sodipodi.sourceforge.net/DTD/sodipodi-0.dtd"
   xmlns:inkscape="http://www.inkscape.org/namespaces/inkscape"
   version="1.1"
   id="_x31__x5F_General_x5F_Statistics"
   x="0px"
   y="0px"
   width="410"
   height="283.45999"
   viewBox="0 0 409.99999 283.46"
   xml:space="preserve"
   inkscape:version="0.48.3.1 r9886"
   sodipodi:docname="1_General_Statistics.svg"><metadata
   id="metadata35"><rdf:RDF><cc:Work
       rdf:about=""><dc:format>image/svg+xml</dc:format><dc:type
         rdf:resource="http://purl.org/dc/dcmitype/StillImage" /></cc:Work></rdf:RDF></metadata><defs
   id="defs33" /><sodipodi:namedview
   pagecolor="#ffffff"
   bordercolor="#666666"
   borderopacity="1"
   objecttolerance="10"
   gridtolerance="10"
   guidetolerance="10"
   inkscape:pageopacity="0"
   inkscape:pageshadow="2"
   inkscape:window-width="640"
   inkscape:window-height="480"
   id="namedview31"
   showgrid="false"
   inkscape:zoom="0.54216341"
   inkscape:cx="269.2915"
   inkscape:cy="141.7325"
   inkscape:window-x="0"
   inkscape:window-y="24"
   inkscape:window-maximized="0"
   inkscape:current-layer="_x31__x5F_General_x5F_Statistics" />
<g
   id="g3"
   transform="translate(-74,-0.00499634)">
	<g
   id="g5">
		<g
   id="g7">
			<polygon
   style="fill:#ffffff"
   points="193.277,229.642 193.277,57.175 204.615,57.175 204.615,218.304 371.414,218.304 371.414,229.642 "
   id="polygon9" />
		</g>
		<g
   id="g11">
			<g
   id="g13">
				<polygon
   style="fill:#ffffff"
   points="198.946,60.525 218.168,79.759 218.168,63.438 198.946,44.215 179.723,63.438 179.723,79.759 "
   id="polygon15" />
			</g>
		</g>
		<g
   id="g17">
			<g
   id="g19">
				<polygon
   style="fill:#ffffff"
   points="368.062,223.973 348.83,204.75 365.15,204.75 384.373,223.973 365.15,243.195 348.83,243.195 "
   id="polygon21" />
			</g>
		</g>
	</g>
	<rect
   x="218.789"
   y="133.304"
   style="fill:#ffffff"
   width="17.007999"
   height="70.827003"
   id="rect23" />
	<rect
   x="249.97"
   y="147.47701"
   style="fill:#ffffff"
   width="17.007999"
   height="56.653999"
   id="rect25" />
	<rect
   x="281.151"
   y="53.858002"
   style="fill:#ffffff"
   width="17.007"
   height="150.272"
   id="rect27" />
	<rect
   x="312.332"
   y="82.204002"
   style="fill:#ffffff"
   width="17.007999"
   height="121.927"
   id="rect29" />
</g>
</svg>