<?xml version="1.0" encoding="UTF-8" standalone="no"?>
<!-- Generator: Adobe Illustrator 15.0.0, SVG Export Plug-In . SVG Version: 6.00 Build 0)  -->

<svg
   xmlns:dc="http://purl.org/dc/elements/1.1/"
   xmlns:cc="http://creativecommons.org/ns#"
   xmlns:rdf="http://www.w3.org/1999/02/22-rdf-syntax-ns#"
   xmlns:svg="http://www.w3.org/2000/svg"
   xmlns="http://www.w3.org/2000/svg"
   xmlns:sodipodi="http://sodipodi.sourceforge.net/DTD/sodipodi-0.dtd"
   xmlns:inkscape="http://www.inkscape.org/namespaces/inkscape"
   version="1.1"
   id="_x31__x5F_General_x5F_Status"
   x="0px"
   y="0px"
   width="410"
   height="283"
   viewBox="0 0 409.99999 283"
   xml:space="preserve"
   inkscape:version="0.48.3.1 r9886"
   sodipodi:docname="1_General_Status.svg"><metadata
   id="metadata13"><rdf:RDF><cc:Work
       rdf:about=""><dc:format>image/svg+xml</dc:format><dc:type
         rdf:resource="http://purl.org/dc/dcmitype/StillImage" /></cc:Work></rdf:RDF></metadata><defs
   id="defs11" /><sodipodi:namedview
   pagecolor="#ffffff"
   bordercolor="#666666"
   borderopacity="1"
   objecttolerance="10"
   gridtolerance="10"
   guidetolerance="10"
   inkscape:pageopacity="0"
   inkscape:pageshadow="2"
   inkscape:window-width="640"
   inkscape:window-height="480"
   id="namedview9"
   showgrid="false"
   inkscape:zoom="0.54216341"
   inkscape:cx="269.2915"
   inkscape:cy="141.7325"
   inkscape:window-x="0"
   inkscape:window-y="24"
   inkscape:window-maximized="0"
   inkscape:current-layer="_x31__x5F_General_x5F_Status" />
<g
   id="g3"
   transform="translate(-64,-0.46499634)">
	<g
   id="g5">
		<path
   style="fill:#ffffff"
   d="m 297.05,49.249 c -35.75,0 -64.746,28.949 -64.767,64.737 0.01,16.634 6.296,31.799 16.611,43.266 l -3.471,3.47 3.212,3.241 -6.701,-6.716 -65.55,60.836 16.544,16.572 60.813,-65.575 -3.439,-3.447 3.491,-3.486 c 11.47,10.306 26.63,16.582 43.258,16.582 35.762,0 64.756,-28.988 64.777,-64.742 C 361.806,78.198 332.812,49.249 297.05,49.249 z m 0,115.597 c -28.099,-0.011 -50.822,-22.785 -50.865,-50.859 0.043,-28.127 22.767,-50.843 50.865,-50.882 28.108,0.039 50.829,22.755 50.898,50.882 -0.069,28.074 -22.789,50.848 -50.898,50.859 z"
   id="path7"
   inkscape:connector-curvature="0" />
	</g>
</g>
</svg>