<?xml version="1.0" encoding="UTF-8" standalone="no"?>
<!-- Generator: Adobe Illustrator 15.0.0, SVG Export Plug-In . SVG Version: 6.00 Build 0)  -->

<svg
   xmlns:dc="http://purl.org/dc/elements/1.1/"
   xmlns:cc="http://creativecommons.org/ns#"
   xmlns:rdf="http://www.w3.org/1999/02/22-rdf-syntax-ns#"
   xmlns:svg="http://www.w3.org/2000/svg"
   xmlns="http://www.w3.org/2000/svg"
   xmlns:sodipodi="http://sodipodi.sourceforge.net/DTD/sodipodi-0.dtd"
   xmlns:inkscape="http://www.inkscape.org/namespaces/inkscape"
   version="1.1"
   id="_x31__x5F_General_x5F_Language"
   x="0px"
   y="0px"
   width="410"
   height="283"
   viewBox="0 0 409.99999 283"
   xml:space="preserve"
   inkscape:version="0.48.3.1 r9886"
   sodipodi:docname="1_General_Language.svg"><metadata
   id="metadata4003"><rdf:RDF><cc:Work
       rdf:about=""><dc:format>image/svg+xml</dc:format><dc:type
         rdf:resource="http://purl.org/dc/dcmitype/StillImage" /></cc:Work></rdf:RDF></metadata><defs
   id="defs4001" /><sodipodi:namedview
   pagecolor="#ffffff"
   bordercolor="#666666"
   borderopacity="1"
   objecttolerance="10"
   gridtolerance="10"
   guidetolerance="10"
   inkscape:pageopacity="0"
   inkscape:pageshadow="2"
   inkscape:window-width="1680"
   inkscape:window-height="1026"
   id="namedview3999"
   showgrid="false"
   inkscape:zoom="0.54216341"
   inkscape:cx="269.2915"
   inkscape:cy="141.7325"
   inkscape:window-x="3840"
   inkscape:window-y="24"
   inkscape:window-maximized="1"
   inkscape:current-layer="_x31__x5F_General_x5F_Language" />
<path
   style="fill:#ffffff"
   d="m 306.48236,113.993 c -8.86,3.632 -16.241,5.335 -22.843,5.919 V 79.570004 l -8.194,3.369 c -7.682,3.128 -14.194,4.764 -20.105,5.573 v -37.243 l -8.184,3.376 c -11.409,4.669 -20.442,6.217 -28.39,6.217 -19.191,0.246 -34.099,-10.14 -58.944,-10.387 -28.919,0.024 -47.481,9.024 -48.039,9.278 l -3.334,1.633 V 147.204 h 0.009 v 24.837 h 11.885 v -30.366 c 1.882,-0.719 4.476,-1.615 7.965,-2.566 2.412,-0.667 5.315,-1.304 8.422,-1.882 v 38.264 l 0.019,-0.013 v 24.853 h 11.893 v -30.386 c 1.864,-0.706 4.477,-1.612 7.948,-2.562 3.087,-0.849 6.996,-1.617 11.208,-2.309 v 66.313 h 11.901 v -30.376 c 1.882,-0.713 4.476,-1.604 7.964,-2.56 7.464,-2.055 18.298,-4.132 31.516,-4.132 20.778,-0.225 35.347,10.12 58.925,10.375 9.546,0 20.303,-1.945 32.894,-7.106 l 3.706,-1.507 v -85.46 l -8.222,3.372 z m -186.131,15.08 V 69.042004 c 1.873,-0.702 4.53,-1.606 7.956,-2.548 7.482,-2.052 18.306,-4.121 31.515,-4.121 20.781,-0.227 35.377,10.112 58.944,10.392 7.407,0 15.537,-1.179 24.708,-4.12 v 20.329 c -17.511,-0.954 -32.098,-9.979 -55.363,-10.203 -28.911,0.014 -47.49,9.025 -48.03,9.271 l -3.352,1.632 V 125.183 c -6.668,1.14 -12.276,2.565 -16.378,3.89 z m 28.29,28.284 V 97.331004 c 1.864,-0.707 4.539,-1.616 7.948,-2.558 7.472,-2.037 18.306,-4.11 31.522,-4.11 20.763,-0.251 35.378,10.098996 58.926,10.376996 7.417,0 15.557,-1.163992 24.719,-4.100996 V 119.877 c -16.334,-1.664 -30.545,-9.846 -52.577,-10.055 -28.921,0.023 -47.501,9.03 -48.047,9.286 l -3.335,1.617 v 32.271 c -7.92,1.187 -14.498,2.841 -19.156,4.361 z m 154.16,30.66 c -9.706,3.563 -17.618,4.777 -24.697,4.795 -19.191,0.253 -34.08,-10.14 -58.925,-10.368 -17.521,0 -31.26,3.308 -39.479,5.971 v -60.027 c 1.882,-0.703 4.54,-1.611 7.964,-2.544 7.464,-2.045 18.298,-4.113 31.516,-4.113 20.752,-0.253 35.347,10.097 58.941,10.375 7.391,0 15.529,-1.172 24.681,-4.114 v 60.025 z"
   id="path3997"
   inkscape:connector-curvature="0" />
</svg>