<?xml version="1.0" encoding="UTF-8" standalone="no"?>
<!-- Generator: Adobe Illustrator 15.0.0, SVG Export Plug-In . SVG Version: 6.00 Build 0)  -->

<svg
   xmlns:dc="http://purl.org/dc/elements/1.1/"
   xmlns:cc="http://creativecommons.org/ns#"
   xmlns:rdf="http://www.w3.org/1999/02/22-rdf-syntax-ns#"
   xmlns:svg="http://www.w3.org/2000/svg"
   xmlns="http://www.w3.org/2000/svg"
   xmlns:sodipodi="http://sodipodi.sourceforge.net/DTD/sodipodi-0.dtd"
   xmlns:inkscape="http://www.inkscape.org/namespaces/inkscape"
   version="1.1"
   id="_x31__x5F_General_x5F_ConveyorBelt_x5F_Start"
   x="0px"
   y="0px"
   width="410"
   height="283"
   viewBox="0 0 409.99999 283"
   xml:space="preserve"
   inkscape:version="0.48.3.1 r9886"
   sodipodi:docname="1_General_ConveyorBelt_Start.svg"><metadata
   id="metadata19"><rdf:RDF><cc:Work
       rdf:about=""><dc:format>image/svg+xml</dc:format><dc:type
         rdf:resource="http://purl.org/dc/dcmitype/StillImage" /></cc:Work></rdf:RDF></metadata><defs
   id="defs17" /><sodipodi:namedview
   pagecolor="#ffffff"
   bordercolor="#666666"
   borderopacity="1"
   objecttolerance="10"
   gridtolerance="10"
   guidetolerance="10"
   inkscape:pageopacity="0"
   inkscape:pageshadow="2"
   inkscape:window-width="640"
   inkscape:window-height="480"
   id="namedview15"
   showgrid="false"
   inkscape:zoom="0.54216341"
   inkscape:cx="269.2915"
   inkscape:cy="141.7325"
   inkscape:window-x="0"
   inkscape:window-y="24"
   inkscape:window-maximized="0"
   inkscape:current-layer="_x31__x5F_General_x5F_ConveyorBelt_x5F_Start" />
<g
   id="g3"
   transform="translate(-66,-0.46499634)">
	<g
   id="g5">
		<path
   style="fill:#ffffff"
   d="m 416.191,172.397 c 12.647,0 22.937,10.289 22.937,22.937 0,12.646 -10.289,22.936 -22.937,22.936 H 127.125 c -12.647,0 -22.937,-10.289 -22.937,-22.936 0,-12.647 10.29,-22.937 22.937,-22.937 h 289.066 m 0,-11.338 H 127.125 c -18.93,0 -34.275,15.346 -34.275,34.275 0,18.929 15.345,34.274 34.275,34.274 H 416.19 c 18.931,0 34.275,-15.346 34.275,-34.274 0.001,-18.93 -15.343,-34.275 -34.274,-34.275 l 0,0 z"
   id="path7"
   inkscape:connector-curvature="0" />
		<circle
   style="fill:#ffffff"
   cx="127.125"
   cy="195.334"
   r="14.173"
   id="circle9"
   sodipodi:cx="127.125"
   sodipodi:cy="195.334"
   sodipodi:rx="14.173"
   sodipodi:ry="14.173"
   d="m 141.298,195.334 c 0,7.82753 -6.34547,14.173 -14.173,14.173 -7.82753,0 -14.173,-6.34547 -14.173,-14.173 0,-7.82753 6.34547,-14.173 14.173,-14.173 7.82753,0 14.173,6.34547 14.173,14.173 z" />
		<circle
   style="fill:#ffffff"
   cx="416.19101"
   cy="195.33299"
   r="14.173"
   id="circle11"
   sodipodi:cx="416.19101"
   sodipodi:cy="195.33299"
   sodipodi:rx="14.173"
   sodipodi:ry="14.173"
   d="m 430.36401,195.33299 c 0,7.82753 -6.34547,14.173 -14.173,14.173 -7.82753,0 -14.173,-6.34547 -14.173,-14.173 0,-7.82753 6.34547,-14.173 14.173,-14.173 7.82753,0 14.173,6.34547 14.173,14.173 z" />
	</g>
	<polygon
   style="fill:#ffffff"
   points="243.658,49.238 243.658,129.078 303.578,89.158 "
   id="polygon13" />
</g>
</svg>