<?xml version="1.0" encoding="UTF-8" standalone="no"?>
<!-- Generator: Adobe Illustrator 15.0.0, SVG Export Plug-In . SVG Version: 6.00 Build 0)  -->

<svg
   xmlns:dc="http://purl.org/dc/elements/1.1/"
   xmlns:cc="http://creativecommons.org/ns#"
   xmlns:rdf="http://www.w3.org/1999/02/22-rdf-syntax-ns#"
   xmlns:svg="http://www.w3.org/2000/svg"
   xmlns="http://www.w3.org/2000/svg"
   xmlns:sodipodi="http://sodipodi.sourceforge.net/DTD/sodipodi-0.dtd"
   xmlns:inkscape="http://www.inkscape.org/namespaces/inkscape"
   version="1.1"
   id="_x31__x5F_Adjustment_x5F_Delete"
   x="0px"
   y="0px"
   width="410"
   height="283"
   viewBox="0 0 409.99999 283"
   xml:space="preserve"
   inkscape:version="0.48.3.1 r9886"
   sodipodi:docname="1_General_Program.svg"><metadata
   id="metadata15"><rdf:RDF><cc:Work
       rdf:about=""><dc:format>image/svg+xml</dc:format><dc:type
         rdf:resource="http://purl.org/dc/dcmitype/StillImage" /><dc:title /></cc:Work></rdf:RDF></metadata><defs
   id="defs13" /><sodipodi:namedview
   pagecolor="#ffffff"
   bordercolor="#666666"
   borderopacity="1"
   objecttolerance="10"
   gridtolerance="10"
   guidetolerance="10"
   inkscape:pageopacity="0"
   inkscape:pageshadow="2"
   inkscape:window-width="1680"
   inkscape:window-height="1026"
   id="namedview11"
   showgrid="true"
   inkscape:zoom="2.8284271"
   inkscape:cx="238.92934"
   inkscape:cy="149.01195"
   inkscape:window-x="3840"
   inkscape:window-y="24"
   inkscape:window-maximized="1"
   inkscape:current-layer="_x31__x5F_Adjustment_x5F_Delete" />
<g
   id="g3"
   transform="matrix(1.0919859,0,0,1.0919859,-87.94475,-19.384673)">
	<g
   id="g5">
		<path
   style="fill:#ffffff"
   d="M 322.503,70.866 V 212.6 H 213.011 V 98.648 l 27.784,-27.782 h 81.708 M 339.511,53.858 H 233.75 L 196.003,91.603 V 229.608 H 339.511 V 53.858 l 0,0 z"
   id="path7"
   inkscape:connector-curvature="0" />
	</g>
	
</g>
<path
   style="fill:#ffffff"
   d="m 243.53055,97.773987 c 0,-3.419008 -2.77147,-6.190468 -6.19049,-6.190468 H 171.6331 c -3.41902,0 -6.19049,2.77146 -6.19049,6.190468 0,3.419003 2.77147,6.190463 6.19049,6.190463 h 65.70696 c 3.41901,0 6.19049,-2.77146 6.19049,-6.190463 z"
   id="path3921"
   inkscape:connector-curvature="0" /><path
   style="fill:#ffffff"
   d="m 243.53055,141.45342 c 0,-3.41901 -2.77147,-6.19047 -6.19049,-6.19047 H 171.6331 c -3.41904,0 -6.19049,2.77146 -6.19049,6.19047 0,3.41901 2.77147,6.19047 6.19049,6.19047 h 65.70695 c 3.41901,0 6.19049,-2.77146 6.19049,-6.19047 z"
   id="path3921-4"
   inkscape:connector-curvature="0" /><path
   style="fill:#ffffff"
   d="m 243.53055,183.67178 c 0,-3.41901 -2.77147,-6.19047 -6.19049,-6.19047 H 171.6331 c -3.41902,0 -6.19049,2.77146 -6.19049,6.19047 0,3.41901 2.77147,6.19047 6.19049,6.19047 h 65.70696 c 3.41901,0 6.19049,-2.77146 6.19049,-6.19047 z"
   id="path3921-4-3"
   inkscape:connector-curvature="0" /></svg>