<?xml version="1.0" encoding="UTF-8" standalone="no"?>
<!-- Generator: Adobe Illustrator 15.0.0, SVG Export Plug-In . SVG Version: 6.00 Build 0)  -->

<svg
   xmlns:dc="http://purl.org/dc/elements/1.1/"
   xmlns:cc="http://creativecommons.org/ns#"
   xmlns:rdf="http://www.w3.org/1999/02/22-rdf-syntax-ns#"
   xmlns:svg="http://www.w3.org/2000/svg"
   xmlns="http://www.w3.org/2000/svg"
   xmlns:sodipodi="http://sodipodi.sourceforge.net/DTD/sodipodi-0.dtd"
   xmlns:inkscape="http://www.inkscape.org/namespaces/inkscape"
   version="1.1"
   id="_x31__x5F_Navigation_x5F_Back_x5F_Cancel"
   x="0px"
   y="0px"
   width="410"
   height="283"
   viewBox="0 0 409.99999 283"
   xml:space="preserve"
   inkscape:version="0.48.3.1 r9886"
   sodipodi:docname="1_Navigation_Back_Cancel.svg"><metadata
   id="metadata4119"><rdf:RDF><cc:Work
       rdf:about=""><dc:format>image/svg+xml</dc:format><dc:type
         rdf:resource="http://purl.org/dc/dcmitype/StillImage" /></cc:Work></rdf:RDF></metadata><defs
   id="defs4117" /><sodipodi:namedview
   pagecolor="#ffffff"
   bordercolor="#666666"
   borderopacity="1"
   objecttolerance="10"
   gridtolerance="10"
   guidetolerance="10"
   inkscape:pageopacity="0"
   inkscape:pageshadow="2"
   inkscape:window-width="640"
   inkscape:window-height="480"
   id="namedview4115"
   showgrid="false"
   inkscape:zoom="0.54216341"
   inkscape:cx="269.2915"
   inkscape:cy="141.7325"
   inkscape:window-x="0"
   inkscape:window-y="24"
   inkscape:window-maximized="0"
   inkscape:current-layer="_x31__x5F_Navigation_x5F_Back_x5F_Cancel" />
<path
   id="safsa"
   style="fill:#ffffff"
   d="m 248.65374,79.043004 h -123.914 l 24.753,-24.739 h -27.85 l -32.800998,32.801 32.800998,32.800996 h 27.85 l -24.753,-24.738996 h 123.914 c 32.275,0 58.533,26.258996 58.533,58.533996 0,32.276 -26.258,58.535 -58.533,58.535 h -92.603 v 16.123 h 92.603 c 41.166,0 74.656,-33.491 74.656,-74.658 0,-41.167 -33.49,-74.657996 -74.656,-74.657996 z"
   inkscape:connector-curvature="0" />
</svg>