|======================|======================|
|    Product           |      IODD            |
|======================|======================|
|    IF6123            |  ifm-000317-*        |
|----------------------|----------------------|
|    IF6124            |  ifm-000317-*        |
|----------------------|----------------------|
|    IG6615            |  ifm-000317-*        |
|----------------------|----------------------|
|    IG6616            |  ifm-000317-*        |
|----------------------|----------------------|
|    II5973            |  ifm-000317-*        |
|----------------------|----------------------|
|    II5974            |  ifm-000317-*        |
|----------------------|----------------------|
|    IM5172            |  ifm-000317-*        |
|----------------------|----------------------|
|    IM5173            |  ifm-000317-*        |
|----------------------|----------------------|
