|================|================|
|    Product     |      IODD      |
|================|================|
|    RA3100      |  ifm-0001F3-*  |
|----------------|----------------|
|    RA3101      |  ifm-0001F3-*  |
|----------------|----------------|
|    RA3500      |  ifm-0001F3-*  |
|----------------|----------------|
|    RA3501      |  ifm-0001F3-*  |
|----------------|----------------|
|    RB3100      |  ifm-0001F3-*  |
|----------------|----------------|
|    RB3500      |  ifm-0001F3-*  |
|----------------|----------------|
|    RO3100      |  ifm-0001F3-*  |
|----------------|----------------|
|    RO3101      |  ifm-0001F3-*  |
|----------------|----------------|
|    RO3500      |  ifm-0001F3-*  |
|----------------|----------------|
|    RO3501      |  ifm-0001F3-*  |
|----------------|----------------|
|    RU3100      |  ifm-0001F3-*  |
|----------------|----------------|
|    RU3500      |  ifm-0001F3-*  |
|----------------|----------------|
|    RV3100      |  ifm-0001F3-*  |
|----------------|----------------|
|    RV3500      |  ifm-0001F3-*  |
|----------------|----------------|
