|================|================|
|    Product     |      IODD      |
|================|================|
|    ROP520      |  ifm-0001F0-*  |
|----------------|----------------|
|    ROP521      |  ifm-0001F0-*  |
|----------------|----------------|
|    RUP500      |  ifm-0001F0-*  |
|----------------|----------------|
|    RVP510      |  ifm-0001F0-*  |
|----------------|----------------|
